<svg display="none" xmlns="http://www.w3.org/2000/svg">

  <symbol id="header-search" viewBox="0 0 512 512">
    <path d="M416 208c0 45.9-14.9 88.3-40 122.7L502.6 457.4c12.5 12.5 12.5 32.8 0 45.3s-32.8 12.5-45.3 0L330.7 376c-34.4 25.2-76.8 40-122.7 40C93.1 416 0 322.9 0 208S93.1 0 208 0S416 93.1 416 208zM208 352a144 144 0 1 0 0-288 144 144 0 1 0 0 288z"/>
  </symbol>

  <symbol id="swipe-arrow" viewBox="0 0 8 13">
    <path d="M6.50764 12.5076L7.81261 11.1056L3.52463 6.49631L7.81261 1.88987L6.50764 0.486695L0.91457 6.49631L6.50764 12.5076Z"/>
  </symbol>

</svg>